---S
---#
----
----
ABCD
----
----
-BC-
----
----
A--D
----
----
ABCD
----
----
-BC-
-BC-
-BC-
-BC-
----
----
A--D
----
----
-BC-
----
----
---D
----
----
A---
----
----
---D
---D
---D
---D
----
----
--C-
----
----
-B--
----
----
---D
----
----
A---
----
----
A--D
----
----
-BC-
----
----
ABCD
----
----
----
---#
AB--
----
----
--C-
----
----
--CD
----
----
--A-
----
----
-B-D
----
----
--C-
----
----
A-C-
----
----
---D
----
----
-C--
----
----
---D
----
----
-B--
----
----
---D
----
----
A---
----
----
---D
----
----
--C-
----
----
-B--
----
----
A---
----
----
----
---#
ABCD
ABCD
ABCD
ABCD
----
----
A--D
----
----
ABCD
----
----
-BC-
----
----
ABCD
----
----
---D
----
----
ABCD
----
----
--C-
----
----
ABCD
----
----
-B--
----
----
ABCD
----
----
A---
----
ABCD
----
----
----
---#
ABCD
----
A--D
A--D
A--D
A--D
----
----
-B-D
----
----
A-C-
----
----
-BC-
----
A--D
----
----
--C-
--C-
--C-
--C-
----
----
-B--
-B--
-B--
-B--
----
----
---D
---D
---D
---D
----
----
A---
A---
A---
A---
----
----
----
----
----
----
----
----